"Main","Sub","originNumber","otherNumber","Numbers"
"垃圾、噪音、污染及資源回收","無牌廢棄車(含汽、機車及自行車)、廢棄物處理(含醫療廢棄物)及資源回收",0,0,0
"垃圾、噪音、污染及資源回收","有牌廢棄車",0,5,5
"垃圾、噪音、污染及資源回收","大型廢棄物清運",521,0,521
"垃圾、噪音、污染及資源回收","鄰里無主垃圾清運",4433,0,4433
"垃圾、噪音、污染及資源回收","路面清潔(含行人果皮箱、菸蒂、狗便)",0,28,28
"垃圾、噪音、污染及資源回收","專用袋(含兩用袋)、源頭減量(含限塑政策)",0,15,15
"垃圾、噪音、污染及資源回收","違規小廣告、旗幟",2567,6,2573
"垃圾、噪音、污染及資源回收","場所及設施噪音舉發",2534,0,2534
"垃圾、噪音、污染及資源回收","人與動物噪音",1241,1,1242
"垃圾、噪音、污染及資源回收","發生在公園之噪音",343,11,354
"垃圾、噪音、污染及資源回收","抽水站噪音、黑煙及惡臭",0,2,2
"垃圾、噪音、污染及資源回收","污染舉發",2336,1,2337
"垃圾、噪音、污染及資源回收","道路散落物或油漬處理",62,1,63
"垃圾、噪音、污染及資源回收","環保稽查",0,243,243
"道路、山坡地、路樹及路燈","市區道路坑洞處理",5769,1,5770
"道路、山坡地、路樹及路燈","道路掏空",117,0,117
"道路、山坡地、路樹及路燈","道路邊坡坍方",63,0,63
"道路、山坡地、路樹及路燈","道路凹陷、不平、有高低差",6968,11,6979
"道路、山坡地、路樹及路燈","人行道維護",6725,6,6731
"道路、山坡地、路樹及路燈","管線施工、纜線附掛",0,53,53
"道路、山坡地、路樹及路燈","橋梁、隧道、車( 人) 行地下道及涵洞積淹水",90,0,90
"道路、山坡地、路樹及路燈","路面積淹水",181,0,181
"道路、山坡地、路樹及路燈","河濱自行車道破損",15,0,15
"道路、山坡地、路樹及路燈","山坡地問題",0,0,0
"道路、山坡地、路樹及路燈","路燈故障或設施損壞",2279,1,2280
"道路、山坡地、路樹及路燈","路樹處理",587,1,588
"道路、山坡地、路樹及路燈","路樹修剪維護",4136,12,4148
"道路、山坡地、路樹及路燈","路燈遷移",658,0,658
"自來水、下水道、排水溝及公園","用戶無水、漏水報修",218,0,218
"自來水、下水道、排水溝及公園","雨水下水道側溝清淤",92,1,93
"自來水、下水道、排水溝及公園","雨水下水道維護",0,0,0
"自來水、下水道、排水溝及公園","污水下水道維護(含孔蓋冒水)、污水管申接、污水排放稽查",0,0,0
"自來水、下水道、排水溝及公園","排水溝疏通",395,6,401
"自來水、下水道、排水溝及公園","道路側溝內溝牆(底)破損",196,0,196
"自來水、下水道、排水溝及公園","溝蓋遺失、鬆動、被打開",1210,0,1210
"自來水、下水道、排水溝及公園","道路側溝溝蓋(含周邊)損壞遺失",1566,1,1567
"自來水、下水道、排水溝及公園","人孔蓋(含周邊)破損、遺失處理",409,1,410
"自來水、下水道、排水溝及公園","一般公園綠地管理及設施維護（含車輛違規進入）",0,186,186
"自來水、下水道、排水溝及公園","河濱公園管理及設施維護（含車輛違規進入）",0,43,43
"文化、教育、體育、觀光、媒體及資訊","文化事務（文化資產、表演藝術、文化場館、藝文推廣）",0,0,0
"文化、教育、體育、觀光、媒體及資訊","原住民事務",0,1,1
"文化、教育、體育、觀光、媒體及資訊","客家事務",0,0,0
"文化、教育、體育、觀光、媒體及資訊","教育事務（校園、教師、幼兒園、圖書館、補教業）",0,72,72
"文化、教育、體育、觀光、媒體及資訊","體育事務(含大巨蛋狐疑專線事項)",3405,17,3422
"文化、教育、體育、觀光、媒體及資訊","觀光事務（民宿及旅館、觀光活動、觀光旅遊諮詢、觀光導覽指示牌、觀光巴士）",0,94,94
"文化、教育、體育、觀光、媒體及資訊","媒體事務（有線電視、出版品、吉祥物）",0,35,35
"文化、教育、體育、觀光、媒體及資訊","資訊服務",0,27,27
"交通運輸","交通號誌異常",1127,1,1128
"交通運輸","交通標誌牌面損壞(含汙損)、傾斜",0,0,0
"交通運輸","交通號誌電纜線垂落及設施損壞",251,0,251
"交通運輸","交通號(標）誌設置問題",0,1,1
"交通運輸","標線增設、補繪或塗銷",13293,18,13311
"交通運輸","公車、計程車、復康巴士問題",31378,14,31392
"交通運輸","停車管理及收費問題",17870,36,17906
"交通運輸","微笑單車 (YouBike)",2393,1,2394
"交通運輸","捷運營運、貓纜服務",3202,9,3211
"交通運輸","捷運施工及路線規劃",1024,7,1031
"交通運輸","交通動線規劃問題",9958,2,9960
"產業、都市發展、建管、地政及財稅","產業發展(含工商業、農業、市場、公用事業等)",0,0,0
"產業、都市發展、建管、地政及財稅","都市規劃、設計、更新及開發",0,91,91
"產業、都市發展、建管、地政及財稅","都市計畫審議",0,2,2
"產業、都市發展、建管、地政及財稅","國民住宅、公共住宅",0,46,46
"產業、都市發展、建管、地政及財稅","建築物使用管理、違建查報及拆除(含防火巷占用、固定式騎樓障礙物)",25598,136,25734
"產業、都市發展、建管、地政及財稅","施工管理及建築損鄰",3625,6,3631
"產業、都市發展、建管、地政及財稅","公寓大廈及廣告招牌",4893,28,4921
"產業、都市發展、建管、地政及財稅","室內通道違規及裝修",3902,4,3906
"產業、都市發展、建管、地政及財稅","地政業務",0,123,123
"產業、都市發展、建管、地政及財稅","財政問題、菸酒管理",0,30,30
"產業、都市發展、建管、地政及財稅","地方稅務問題(含地價稅、土地增值稅、房屋稅、契稅、使用牌照稅、印花稅、娛樂稅等問題)",0,39,39
"產業、都市發展、建管、地政及財稅","動產質借問題",0,0,0
"產業、都市發展、建管、地政及財稅","主計及統計",0,2,2
"衛生、社福、勞動、民政及區政","疾病防治及醫療管理",6270,17,6287
"衛生、社福、勞動、民政及區政","食品衛生安全及藥品安全",0,68,68
"衛生、社福、勞動、民政及區政","菸害防制",2732,5,2737
"衛生、社福、勞動、民政及區政","婦幼優生、台北卡",0,0,0
"衛生、社福、勞動、民政及區政","健康服務",0,0,0
"衛生、社福、勞動、民政及區政","社會救助",1768,7,1775
"衛生、社福、勞動、民政及區政","福利服務",2721,21,2742
"衛生、社福、勞動、民政及區政","遊民安置與管理",1435,1,1436
"衛生、社福、勞動、民政及區政","人民團體服務及勸募",0,2,2
"衛生、社福、勞動、民政及區政","勞工權益",14040,56,14096
"衛生、社福、勞動、民政及區政","外勞業務",2745,4,2749
"衛生、社福、勞動、民政及區政","職業安全衛生",0,0,0
"衛生、社福、勞動、民政及區政","就業服務",0,3,3
"衛生、社福、勞動、民政及區政","民政、區政業務",4167,60,4227
"衛生、社福、勞動、民政及區政","兵役服務",0,5,5
"衛生、社福、勞動、民政及區政","動物保護",0,0,0
"衛生、社福、勞動、民政及區政","動物虐待傷害",294,0,294
"警政、消防、政風及法律","違規停車",22924,97,23021
"警政、消防、政風及法律","違規罰單問題",0,28,28
"警政、消防、政風及法律","行人違規、自行車違規及道路障礙違規",0,0,0
"警政、消防、政風及法律","路霸（移動式障礙物）檢舉",0,66,66
"警政、消防、政風及法律","拖吊問題",0,1,1
"警政、消防、政風及法律","交通事故",0,0,0
"警政、消防、政風及法律","交通管制疏導",0,0,0
"警政、消防、政風及法律","監視器問題",0,4,4
"警政、消防、政風及法律","治安維護",0,0,0
"警政、消防、政風及法律","警政風紀",0,0,0
"警政、消防、政風及法律","妨害風化(俗)",0,0,0
"警政、消防、政風及法律","消防安全管理(含防災、搶救、火災調查及消防通道)",0,19,19
"警政、消防、政風及法律","政風服務",0,11,11
"警政、消防、政風及法律","法律服務",0,23,23
"警政、消防、政風及法律","政府採購",0,2,2
